<?xml version="1.0" encoding="UTF-8" standalone="no"?>
<gpx
	xmlns="http://www.topografix.com/GPX/1/1"
	xmlns:xsi="http://www.w3.org/2001/XMLSchema-instance"
	xsi:schemaLocation="http://www.topografix.com/GPX/1/1 http://www.topografix.com/GPX/1/1/gpx.xsd"
	version="1.1"
	creator="gpx-poi.com">

	<wpt lat="37.385400" lon="127.119987">

		<name>성남시</name>

	</wpt>

</gpx>